…
### We will make unique pairs and unique IDs for participants (because controls have same ID as skitzophrenic)
df <- df %>% mutate(uPairID = paste(subj, study, sep = "_"), #Create unique pair ID
                    uPairID = as.numeric(as.factor(uPairID)), 
                    uID = paste(subj, study, diagnosis, sep = "_"), #Create unique ID
                    uID = as.numeric(as.factor(uID)))

## We rename these columns
#df <- df %>% rename(uPairID = `uPairID <- as.numeric(as.factor(uPairID))`, PairID = `uPairID <- paste(subj, study, sep = "_")`, ID = `uID <- paste(subj, study, diagnosis, sep = "_")`, uID = `uID <- as.numeric(as.factor(uID))`)

df %>% select(uPairID, study) %>% unique() %>% group_by(uPairID) %>% summarise(n()) #Check whether they all say 1
```

    ## # A tibble: 122 x 2
    ##    uPairID `n()`
    ##      <dbl> <int>
    ##  1       1     1
    ##  2       2     1
    ##  3       3     1
    ##  4       4     1
    ##  5       5     1
    ##  6       6     1
    ##  7       7     1
    ##  8       8     1
    ##  9       9     1
    ## 10      10     1
    ## # ... with 112 more rows
…
